{
  "development": {
    "username": "root",
    "password": "tien.hust",
    "database": "cnpm",
    "host": "127.0.0.1",
    "dialect": "mysql",
    "logging":false,
    "raw":true,
    "freezeTableName":true,
    "timestamps":true,
    "dialectOptions": {
      "useUTC": false
    },
    "timezone": "+07:00"
  },
  "test": {
    "username": "root",
    "password": null,
    "database": "database_test",
    "host": "127.0.0.1",
    "dialect": "mysql"
  },
  "production": {
    "username": "root",
    "password": null,
    "database": "database_production",
    "host": "127.0.0.1",
    "dialect": "mysql"
  }
}
